{
    "key": "group_5ad7c67f30e34",
    "title": "Global - Block Setting",
    "fields": [
        {
            "key": "field_5ad78ab31f7c2",
            "label": "Design",
            "name": "",
            "type": "tab",
            "instructions": "",
            "required": 0,
            "conditional_logic": 0,
            "wrapper": {
                "width": "",
                "class": "",
                "id": ""
            },
            "placement": "top",
            "endpoint": 0
        },
        {
            "key": "field_5ad78b55e0e30",
            "label": "Block Title",
            "name": "block_title",
            "type": "text",
            "instructions": "Useful when a large amount of flexible content rows are added. IE: Service Order CTA.",
            "required": 1,
            "conditional_logic": 0,
            "wrapper": {
                "width": "70",
                "class": "",
                "id": ""
            },
            "default_value": "New Component",
            "placeholder": "Please Name Your Component",
            "prepend": "",
            "append": "",
            "maxlength": ""
        },
        {
            "key": "field_5b21724d09bbd",
            "label": "Block Title Show",
            "name": "block_title_show",
            "type": "true_false",
            "instructions": "Display Block Title above component.",
            "required": 0,
            "conditional_logic": 0,
            "wrapper": {
                "width": "30",
                "class": "",
                "id": ""
            },
            "message": "",
            "default_value": 0,
            "ui": 0,
            "ui_on_text": "",
            "ui_off_text": ""
        },
        {
            "key": "field_5ad7c3e3afd6b",
            "label": "Background",
            "name": "background",
            "type": "group",
            "instructions": "",
            "required": 0,
            "conditional_logic": 0,
            "wrapper": {
                "width": "",
                "class": "",
                "id": ""
            },
            "layout": "block",
            "sub_fields": [
                {
                    "key": "field_5b574d18ab73a",
                    "label": "Type",
                    "name": "type",
                    "type": "select",
                    "instructions": "",
                    "required": 0,
                    "conditional_logic": 0,
                    "wrapper": {
                        "width": "",
                        "class": "",
                        "id": ""
                    },
                    "choices": {
                        "Colour": "Colour",
                        "Image": "Image"
                    },
                    "default_value": [],
                    "allow_null": 0,
                    "multiple": 0,
                    "ui": 0,
                    "ajax": 0,
                    "return_format": "value",
                    "placeholder": ""
                },
                {
                    "key": "field_5ad7c43aafd6d",
                    "label": "Colour",
                    "name": "colour",
                    "type": "select",
                    "instructions": "",
                    "required": 0,
                    "conditional_logic": [
                        [
                            {
                                "field": "field_5b574d18ab73a",
                                "operator": "==",
                                "value": "Colour"
                            }
                        ]
                    ],
                    "wrapper": {
                        "width": "50",
                        "class": "",
                        "id": ""
                    },
                    "choices": {
                        "bg-blue": "Blue",
                        "bg-red": "Red",
                        "bg-green": "Green",
                        "bg-orange": "Orange",
                        "bg-pink": "Pink",
                        "bg-light": "Light",
                        "bg-dark": "Dark"
                    },
                    "default_value": [],
                    "allow_null": 1,
                    "multiple": 0,
                    "ui": 0,
                    "ajax": 0,
                    "return_format": "value",
                    "placeholder": ""
                },
                {
                    "key": "field_5ad7c428afd6c",
                    "label": "Image",
                    "name": "image",
                    "type": "image",
                    "instructions": "",
                    "required": 0,
                    "conditional_logic": [
                        [
                            {
                                "field": "field_5b574d18ab73a",
                                "operator": "==",
                                "value": "Image"
                            }
                        ]
                    ],
                    "wrapper": {
                        "width": "50",
                        "class": "",
                        "id": ""
                    },
                    "return_format": "url",
                    "preview_size": "thumbnail",
                    "library": "all",
                    "min_width": "",
                    "min_height": "",
                    "min_size": "",
                    "max_width": "",
                    "max_height": "",
                    "max_size": "",
                    "mime_types": ""
                }
            ]
        },
        {
            "key": "field_5bd89ad5d02f5",
            "label": "ID",
            "name": "css_id",
            "type": "text",
            "instructions": "",
            "required": 0,
            "conditional_logic": 0,
            "wrapper": {
                "width": "30",
                "class": "",
                "id": ""
            },
            "default_value": "",
            "placeholder": "",
            "prepend": "",
            "append": "",
            "maxlength": ""
        },
        {
            "key": "field_5ad7c37abe1c8",
            "label": "Additional CSS Classes",
            "name": "custom-classes",
            "type": "text",
            "instructions": "",
            "required": 0,
            "conditional_logic": 0,
            "wrapper": {
                "width": "70",
                "class": "",
                "id": ""
            },
            "default_value": "",
            "placeholder": "",
            "prepend": "",
            "append": "",
            "maxlength": ""
        },
        {
            "key": "field_5ad7954d08486",
            "label": "Layout",
            "name": "",
            "type": "tab",
            "instructions": "",
            "required": 0,
            "conditional_logic": 0,
            "wrapper": {
                "width": "",
                "class": "",
                "id": ""
            },
            "placement": "top",
            "endpoint": 0
        },
        {
            "key": "field_5a9f24cb04979",
            "label": "Container",
            "name": "container",
            "type": "radio",
            "instructions": "",
            "required": 0,
            "conditional_logic": 0,
            "wrapper": {
                "width": "",
                "class": "",
                "id": ""
            },
            "choices": {
                "container": "Container",
                "container-fluid": "Container Full Width",
                "container-wide": "Container Full Width ~ no text margin"
            },
            "allow_null": 0,
            "other_choice": 0,
            "save_other_choice": 0,
            "default_value": "",
            "layout": "horizontal",
            "return_format": "value"
        },
        {
            "key": "field_5ad7957408487",
            "label": "Padding",
            "name": "block_padding",
            "type": "group",
            "instructions": "",
            "required": 0,
            "conditional_logic": 0,
            "wrapper": {
                "width": "",
                "class": "",
                "id": ""
            },
            "layout": "block",
            "sub_fields": [
                {
                    "key": "field_5ad79fbb6c7c3",
                    "label": "Top",
                    "name": "top",
                    "type": "select",
                    "instructions": "",
                    "required": 0,
                    "conditional_logic": 0,
                    "wrapper": {
                        "width": "50",
                        "class": "",
                        "id": ""
                    },
                    "choices": {
                        "pt-0": "No Padding",
                        "pt-1": "Extra Small",
                        "pt-2": "Small",
                        "pt-3": "Medium",
                        "pt-4": "Large",
                        "pt-5": "Extra Large"
                    },
                    "default_value": [
                        "pt-4"
                    ],
                    "allow_null": 1,
                    "multiple": 0,
                    "ui": 0,
                    "ajax": 0,
                    "return_format": "value",
                    "placeholder": ""
                },
                {
                    "key": "field_5b574963a70e3",
                    "label": "Bottom",
                    "name": "bottom",
                    "type": "select",
                    "instructions": "",
                    "required": 0,
                    "conditional_logic": 0,
                    "wrapper": {
                        "width": "50",
                        "class": "",
                        "id": ""
                    },
                    "choices": {
                        "pb-0": "No Padding",
                        "pb-1": "Extra Small",
                        "pb-2": "Small",
                        "pb-3": "Medium",
                        "pb-4": "Large",
                        "pb-5": "Extra Large"
                    },
                    "default_value": [
                        "pb-4"
                    ],
                    "allow_null": 1,
                    "multiple": 0,
                    "ui": 0,
                    "ajax": 0,
                    "return_format": "value",
                    "placeholder": ""
                },
                {
                    "key": "field_5b57499da70e4",
                    "label": "Left",
                    "name": "left",
                    "type": "select",
                    "instructions": "",
                    "required": 0,
                    "conditional_logic": 0,
                    "wrapper": {
                        "width": "50",
                        "class": "",
                        "id": ""
                    },
                    "choices": {
                        "pl-0": "No Padding",
                        "pl-1": "Extra Small",
                        "pl-2": "Small",
                        "pl-3": "Medium",
                        "pl-4": "Large",
                        "pl-5": "Extra Large"
                    },
                    "default_value": [],
                    "allow_null": 1,
                    "multiple": 0,
                    "ui": 0,
                    "ajax": 0,
                    "return_format": "value",
                    "placeholder": ""
                },
                {
                    "key": "field_5b5749b2a70e6",
                    "label": "Right",
                    "name": "right",
                    "type": "select",
                    "instructions": "",
                    "required": 0,
                    "conditional_logic": 0,
                    "wrapper": {
                        "width": "50",
                        "class": "",
                        "id": ""
                    },
                    "choices": {
                        "pr-0": "No Padding",
                        "pr-1": "Extra Small",
                        "pr-2": "Small",
                        "pr-3": "Medium",
                        "pr-4": "Large",
                        "pr-5": "Extra Large"
                    },
                    "default_value": [],
                    "allow_null": 1,
                    "multiple": 0,
                    "ui": 0,
                    "ajax": 0,
                    "return_format": "value",
                    "placeholder": ""
                }
            ]
        },
        {
            "key": "field_5ad7bf24d6226",
            "label": "Margin",
            "name": "block_margin",
            "type": "group",
            "instructions": "",
            "required": 0,
            "conditional_logic": 0,
            "wrapper": {
                "width": "",
                "class": "",
                "id": ""
            },
            "layout": "block",
            "sub_fields": [
                {
                    "key": "field_5b5749c5a70e7",
                    "label": "Top",
                    "name": "top",
                    "type": "select",
                    "instructions": "",
                    "required": 0,
                    "conditional_logic": 0,
                    "wrapper": {
                        "width": "50",
                        "class": "",
                        "id": ""
                    },
                    "choices": {
                        "mt-0": "No Padding",
                        "mt-1": "Extra Small",
                        "mt-2": "Small",
                        "mt-3": "Medium",
                        "mt-4": "Large",
                        "mt-5": "Extra Large"
                    },
                    "default_value": [],
                    "allow_null": 1,
                    "multiple": 0,
                    "ui": 0,
                    "ajax": 0,
                    "return_format": "value",
                    "placeholder": ""
                },
                {
                    "key": "field_5b5749efa70e8",
                    "label": "Bottom",
                    "name": "bottom",
                    "type": "select",
                    "instructions": "",
                    "required": 0,
                    "conditional_logic": 0,
                    "wrapper": {
                        "width": "50",
                        "class": "",
                        "id": ""
                    },
                    "choices": {
                        "mb-0": "No Padding",
                        "mb-1": "Extra Small",
                        "mb-2": "Small",
                        "mb-3": "Medium",
                        "mb-4": "Large",
                        "mb-5": "Extra Large"
                    },
                    "default_value": [],
                    "allow_null": 1,
                    "multiple": 0,
                    "ui": 0,
                    "ajax": 0,
                    "return_format": "value",
                    "placeholder": ""
                },
                {
                    "key": "field_5b574a00a70ea",
                    "label": "Left",
                    "name": "left",
                    "type": "select",
                    "instructions": "",
                    "required": 0,
                    "conditional_logic": 0,
                    "wrapper": {
                        "width": "50",
                        "class": "",
                        "id": ""
                    },
                    "choices": {
                        "ml-0": "No Padding",
                        "ml-1": "Extra Small",
                        "ml-2": "Small",
                        "ml-3": "Medium",
                        "ml-4": "Large",
                        "ml-5": "Extra Large"
                    },
                    "default_value": [],
                    "allow_null": 1,
                    "multiple": 0,
                    "ui": 0,
                    "ajax": 0,
                    "return_format": "value",
                    "placeholder": ""
                },
                {
                    "key": "field_5b574a0ca70ec",
                    "label": "Right",
                    "name": "right",
                    "type": "select",
                    "instructions": "",
                    "required": 0,
                    "conditional_logic": 0,
                    "wrapper": {
                        "width": "50",
                        "class": "",
                        "id": ""
                    },
                    "choices": {
                        "mr-0": "No Padding",
                        "mr-1": "Extra Small",
                        "mr-2": "Small",
                        "mr-3": "Medium",
                        "mr-4": "Large",
                        "mr-5": "Extra Large"
                    },
                    "default_value": [],
                    "allow_null": 1,
                    "multiple": 0,
                    "ui": 0,
                    "ajax": 0,
                    "return_format": "value",
                    "placeholder": ""
                }
            ]
        },
        {
            "key": "field_5b1ed5cc7bfda",
            "label": "Align Items Vertical",
            "name": "align_items_vertical",
            "type": "select",
            "instructions": "Vertical Alignment of content blocks.",
            "required": 0,
            "conditional_logic": 0,
            "wrapper": {
                "width": "",
                "class": "",
                "id": ""
            },
            "choices": {
                "align-items-start": "Top",
                "align-items-center": "Centre",
                "align-items-end": "Bottom",
                "align-items-baseline": "Baseline",
                "align-items-stretch": "Stretch"
            },
            "default_value": [
                "align-items-start"
            ],
            "allow_null": 0,
            "multiple": 0,
            "ui": 0,
            "ajax": 0,
            "return_format": "value",
            "placeholder": ""
        },
        {
            "key": "field_5b3fb2154eb95",
            "label": "Align Items Horizontal",
            "name": "align_items_horizontal",
            "type": "select",
            "instructions": "Horizontal Alignment of content blocks.",
            "required": 0,
            "conditional_logic": 0,
            "wrapper": {
                "width": "",
                "class": "",
                "id": ""
            },
            "choices": {
                "justify-content-start": "Left",
                "justify-content-center": "Centre",
                "justify-content-end": "Right"
            },
            "default_value": [
                "justify-content-start"
            ],
            "allow_null": 0,
            "multiple": 0,
            "ui": 0,
            "ajax": 0,
            "return_format": "value",
            "placeholder": ""
        }
    ],
    "location": [
        [
            {
                "param": "post_type",
                "operator": "!=",
                "value": "post"
            },
            {
                "param": "post_type",
                "operator": "==",
                "value": "post"
            }
        ]
    ],
    "menu_order": 0,
    "position": "normal",
    "style": "default",
    "label_placement": "top",
    "instruction_placement": "label",
    "hide_on_screen": "",
    "active": 1,
    "description": "",
    "modified": 1540922111
}